/home/mpcs53013/workspace/hw5_2weather/src/main/java/edu/uchicago/erykanosal/SerializeWeatherSummary.java
/home/mpcs53013/workspace/hw5_2weather/target/generated-sources/thrift/edu/uchicago/erykanosal/weatherSummary/WeatherSummary.java
/home/mpcs53013/workspace/hw5_2weather/src/main/java/edu/uchicago/erykanosal/WeatherSummaryProcessor.java
