0	119739
1	39056
2	150750
3	188480
4	205150
5	108951
6	74572
7	57284
8	36390
9	21531
10	11964
11	5355
12	2442
13	863
14	513
15	232
16	74
17	47
18	13
19	12
20	6
21	3
22	2
23	2
24	2
25	1
27	2
28	1
32	2
36	1
37	1
38	2
40	1
